[
  [1.24723, 5801],
  [1.26393, 4760],
  [1.45166, 3415],
  [1.31634, 5153],
  [1.50357, 4379],
  [1.7595, 5101],
  [2.23916, 4401],
  [1.23739, 4548],
  [1.39512, 4143],
  [1.40208, 5877],
  [1.40985, 4237],
  [1.35671, 4548],
  [1.38169, 4288],
  [2.02062, 4536],
  [1.862, 3993],
  [1.41373, 3654],
  [1.51184, 5254],
  [1.44638, 4408],
  [1.36535, 5038],
  [1.91942, 4602],
  [1.12863, 2156],
  [1.42322, 5202],
  [1.46843, 4042],
  [1.56206, 5532],
  [1.33732, 4088],
  [1.45147, 5033],
  [1.79806, 5264],
  [1.38823, 4198],
  [1.47485, 4735],
  [1.22361, 4332],
  [1.41561, 4067],
  [1.56023, 4571],
  [1.49361, 4681],
  [1.30901, 5626],
  [1.52047, 4558],
  [1.28528, 4873],
  [1.56291, 4666],
  [2.06089, 5709],
  [1.41747, 6319],
  [1.57128, 4706],
  [2.33261, 4268],
  [1.32865, 4224],
  [1.4315, 4840],
  [1.37693, 5092],
  [1.53662, 3554],
  [1.36624, 5392],
  [1.53064, 5570],
  [1.34706, 5437],
  [1.29605, 4720],
  [1.40705, 5404],
  [1.39242, 5043],
  [1.30098, 4746],
  [1.36592, 6169],
  [1.51579, 4148],
  [1.66992, 4595],
  [1.28547, 5453],
  [1.55444, 4917],
  [1.45825, 4924],
  [1.44845, 5027],
  [1.54189, 4267],
  [1.79189, 4606],
  [1.42386, 5219],
  [1.16925, 5296],
  [1.53223, 5480],
  [1.30614, 5150],
  [1.38329, 4525],
  [1.42826, 4786],
  [1.33226, 4390],
  [1.47467, 4419],
  [1.48106, 3890],
  [1.34759, 4821],
  [1.38598, 5156],
  [1.54975, 4378],
  [1.35267, 5543],
  [1.69202, 3991],
  [1.87648, 5594],
  [1.25456, 3791],
  [1.45675, 3908],
  [1.24373, 4834],
  [1.64785, 5147],
  [2.42317, 5569],
  [1.56866, 5053],
  [1.2975, 5568],
  [1.45195, 4603],
  [2.02016, 4661],
  [1.47373, 5177],
  [1.51919, 3754],
  [2.46724, 5385],
  [1.74109, 5915],
  [1.38928, 4340],
  [1.58718, 5185],
  [1.60597, 5855],
  [1.2871, 3963],
  [1.63321, 5305],
  [2.16804, 5216],
  [1.42306, 5213],
  [1.40161, 5245],
  [1.55145, 5401],
  [1.55704, 5320],
  [1.32703, 4689],
  [1.4123, 5169],
  [1.04689, 3433],
  [1.61, 6694],
  [1.34754, 5483],
  [1.70278, 4947],
  [1.74388, 4025],
  [1.77657, 3362],
  [1.6316, 5627],
  [1.47746, 4153],
  [1.62835, 3868],
  [1.55009, 4470],
  [1.96405, 4477],
  [2.05197, 3662],
  [1.26346, 5221],
  [1.7762, 5974],
  [1.64036, 4923],
  [1.27054, 3779],
  [1.50026, 6061],
  [1.34526, 3848],
  [1.78697, 4299],
  [1.45153, 6362],
  [1.65213, 5841],
  [1.60793, 3337],
  [1.26961, 5897],
  [1.62142, 4879],
  [1.27399, 5196],
  [2.34243, 4181],
  [1.64059, 5839],
  [1.50599, 4401],
  [1.26333, 5436],
  [1.78529, 5198],
  [1.43162, 4764],
  [1.5923, 4935],
  [1.62768, 4221],
  [1.72243, 5091],
  [1.87425, 4025],
  [1.80351, 4528],
  [1.96788, 5516],
  [1.29941, 4915],
  [2.4242, 4130],
  [1.46941, 5315],
  [1.49126, 5389],
  [1.8305, 4869],
  [1.53013, 5545],
  [1.66968, 4711],
  [1.34524, 5230],
  [1.52245, 5168],
  [2.1645, 4854],
  [1.44761, 3811],
  [1.45272, 5943],
  [1.51632, 4676],
  [1.46301, 3718],
  [1.58073, 5079],
  [1.46691, 5272],
  [1.81162, 5204],
  [1.60744, 4050],
  [1.50033, 4796],
  [1.48932, 6070],
  [1.83869, 4277],
  [1.35964, 4943],
  [1.42939, 4795],
  [1.25627, 5573],
  [1.53724, 5568],
  [1.32189, 4917],
  [1.59762, 4519],
  [2.07641, 5589],
  [1.32784, 5119],
  [1.38892, 4954],
  [1.59718, 3609],
  [1.62916, 5066],
  [1.49982, 4812],
  [1.50916, 4289],
  [1.25358, 5031],
  [1.19165, 4724],
  [1.47029, 3198],
  [1.43839, 5989],
  [1.28138, 5000],
  [2.06472, 4233],
  [1.36233, 5125],
  [1.5872, 4325],
  [1.20326, 4978],
  [1.41237, 5647],
  [1.41741, 4848],
  [1.40948, 5637],
  [1.14739, 5098],
  [1.48581, 5250],
  [1.94915, 4986],
  [1.4162, 5126],
  [1.18237, 4923],
  [1.20119, 5161],
  [1.85315, 5843],
  [1.39042, 4158],
  [1.54757, 4305],
  [1.36887, 4883],
  [1.23914, 3844],
  [1.32484, 4426],
  [1.30327, 5318],
  [2.15689, 5089],
  [2.05332, 5211],
  [1.65777, 4461]
]