[
  [8083.63, 13468],
  [6151.35, 11511],
  [3091.83, 6458],
  [8404.9, 15531],
  [6569.96, 10588],
  [5915.6, 10896],
  [5968.94, 9828],
  [7150.12, 15911],
  [5487.33, 11173],
  [6044.84, 11225],
  [4634.53, 7914],
  [5253.4, 9736],
  [7061.52, 14095],
  [4209.41, 7618],
  [4411.76, 7193],
  [4605.01, 7999],
  [7281.76, 13463],
  [6354.6, 10785],
  [5420.91, 9625],
  [5780.12, 10557],
  [1875.92, 4408],
  [5783.38, 9954],
  [4433.92, 8077],
  [8647.82, 18370],
  [4174.39, 7197],
  [7119.01, 12392],
  [7001.19, 12224],
  [4790.13, 7896],
  [7120.23, 13242],
  [7730.28, 15824],
  [5285.57, 9322],
  [5017.84, 9067],
  [6935.85, 12797],
  [8124.34, 15445],
  [3963.82, 7349],
  [7485.64, 14302],
  [7448.24, 13949],
  [8708.74, 17210],
  [6996.39, 11843],
  [5655.56, 10179],
  [4739.06, 7267],
  [4822.13, 7835],
  [6709.13, 13145],
  [7745.79, 15150],
  [4512.17, 7966],
  [4111.34, 7956],
  [4124.96, 7641],
  [7959.15, 17062],
  [6234.06, 10759],
  [8249.16, 16631],
  [6261.39, 11831],
  [7639.65, 15690],
  [9628.27, 18194],
  [6079.72, 10880],
  [4869.92, 8268],
  [7249.98, 12758],
  [4029.51, 7781],
  [4306.12, 8380],
  [6697.98, 11985],
  [7088.55, 11812],
  [4754.68, 8554],
  [6271.52, 13764],
  [8657.99, 17498],
  [8082.02, 16436],
  [6629.74, 10952],
  [7443.28, 13226],
  [3887.3, 6467],
  [6069.1, 10093],
  [3668.58, 6440],
  [2960.2, 6242],
  [4783.65, 8238],
  [7475.22, 13680],
  [5402.82, 9127],
  [8824.84, 17024],
  [3797.11, 6877],
  [5046.76, 8131],
  [4569.72, 7891],
  [5512.55, 8175],
  [5398.18, 8511],
  [7429.03, 12856],
  [7128.8, 11847],
  [8081.61, 14870],
  [8964.85, 16993],
  [4372.21, 7533],
  [7450, 11815],
  [7130.67, 12070],
  [4370.54, 7148],
  [6143.58, 9681],
  [7118.95, 12493],
  [5842.58, 9957],
  [5738.55, 8808],
  [8126.26, 14109],
  [7167.24, 12258],
  [9184.19, 18723],
  [7651.24, 12525],
  [8332.04, 14948],
  [6189.07, 10790],
  [7993.45, 15026],
  [4184.19, 7771],
  [5230.3, 8856],
  [5747.34, 9835],
  [5425.02, 10009],
  [7993.57, 13603],
  [6871.73, 10896],
  [4542.61, 8427],
  [4807.92, 7985],
  [3145.87, 5288],
  [7486.36, 13347],
  [4274.35, 7515],
  [3056.86, 5934],
  [6593.98, 10259],
  [6514.65, 12248],
  [3510.94, 6021],
  [8256.74, 17485],
  [9251.39, 17822],
  [6469.05, 11624],
  [5427.71, 7848],
  [8126.19, 16050],
  [3458.66, 6255],
  [6214.98, 12337],
  [10217.8, 17418],
  [6382.37, 9762],
  [2568.65, 5558],
  [9496.49, 16332],
  [6672, 12522],
  [6668.88, 13329],
  [2827.93, 5350],
  [8383.75, 16122],
  [6510.95, 12772],
  [7979.31, 11768],
  [3683.65, 6848],
  [5499.76, 8075],
  [7052.79, 12907],
  [5512.65, 9678],
  [6629.8, 11415],
  [3816.82, 6447],
  [6830.31, 12293],
  [6604.91, 10366],
  [7080.52, 11138],
  [3364.31, 5661],
  [7190.16, 12900],
  [6240.58, 10840],
  [4742.5, 7968],
  [7540.21, 13915],
  [2939.44, 6457],
  [8599.95, 15065],
  [5631.15, 8837],
  [4265.37, 7544],
  [2876, 5287],
  [9601.62, 16521],
  [5953.63, 10525],
  [6333.07, 9455],
  [4524.93, 7873],
  [8012.43, 12342],
  [7487.86, 11692],
  [3188.38, 5920],
  [5928.04, 10929],
  [9277.35, 16602],
  [5157.86, 8694],
  [5038.03, 9343],
  [5436.99, 9646],
  [8995.2, 13171],
  [7628.53, 11745],
  [5608.81, 9819],
  [3221.57, 7271],
  [5086.47, 8651],
  [8516.14, 12723],
  [7489.66, 10920],
  [2829.2, 5604],
  [4615.64, 7222],
  [7506.13, 11585],
  [4069.42, 7096],
  [6690.87, 10443],
  [7170.92, 10400],
  [5538.7, 7341],
  [9260.19, 13283],
  [6335.61, 9044],
  [5051.65, 7257],
  [4612.35, 8110],
  [4742.69, 6909],
  [6350.22, 8234],
  [8752.82, 11972],
  [7238.43, 10978],
  [7310.52, 10150],
  [5787.88, 7966],
  [5311.17, 7302],
  [7559.05, 10869],
  [8447.55, 11229],
  [7250.01, 9013],
  [8214.1, 11795],
  [7894.59, 10351],
  [5208.29, 6903],
  [6402.16, 7520],
  [2843.04, 5931],
  [3250.12, 5430],
  [5098.66, 6383],
  [5688.8, 7424],
  [4583.75, 6127],
  [5198.12, 6966],
  [4059.14, 6098]
]
